{
  "categories": [
    {
      "name" : "Rent",
      "drawableId" : 1
    },
    {
      "name" : "Mortgage",
      "drawableId" : 1
    },
    {
      "name" : "Communications",
      "drawableId" : 1
    },
    {
      "name" : "Utilities",
      "drawableId" : 1
    },
    {
      "name" : "Insurance & Fees",
      "drawableId" : 1
    },
    {
      "name" : "Services",
      "drawableId" : 1
    },
    {
      "name" : "Home other",
      "drawableId" : 1
    },
    {
      "name" : "Taxes",
      "drawableId" : 1
    },
    {
      "name" : "Repairs",
      "drawableId" : 2
    },
    {
      "name" : "Fitment",
      "drawableId" : 2
    },
    {
      "name" : "Garden",
      "drawableId" : 2
    },
    {
      "name" : "House & Garden other",
      "drawableId" : 2
    },
    {
      "name" : "Groceries",
      "drawableId" : 3
    },
    {
      "name" : "Restaurants",
      "drawableId" : 3
    },
    {
      "name" : "Coffee & Lunch",
      "drawableId" : 3
    },
    {
      "name" : "Alcohol & Tabacco",
      "drawableId" : 3
    },
    {
      "name" : "Bars",
      "drawableId" : 3
    },
    {
      "name" : "Food & Drinks other",
      "drawableId" : 3
    },
    {
      "name" : "Transport",
      "drawableId" : 4
    },
    {
      "name" : "Public Transport",
      "drawableId" : 4
    },
    {
      "name" : "Airfare",
      "drawableId" : 4
    },
    {
      "name" : "Taxi",
      "drawableId" : 4
    },
    {
      "name" : "Transport other",
      "drawableId" : 4
    },
    {
      "name" : "Clothes & Accessories",
      "drawableId" : 5
    },
    {
      "name" : "Electronics",
      "drawableId" : 5
    },
    {
      "name" : "Books & Newspapers",
      "drawableId" : 5
    },
    {
      "name" : "Gifts",
      "drawableId" : 5
    },
    {
      "name" : "Shopping other",
      "drawableId" : 5
    },
    {
      "name" : "Outings",
      "drawableId" : 6
    },
    {
      "name" : "Hobby & Sports",
      "drawableId" : 6
    },
    {
      "name" : "Accommodation",
      "drawableId" : 6
    },
    {
      "name" : "Lotteries",
      "drawableId" : 6
    },
    {
      "name" : "Leisure other",
      "drawableId" : 6
    },
    {
      "name" : "Healthcare & Pharmacy",
      "drawableId" : 7
    },
    {
      "name" : "Daily Care",
      "drawableId" : 7
    },
    {
      "name" : "Eyecare",
      "drawableId" : 7
    },
    {
      "name" : "Beauty",
      "drawableId" : 7
    },
    {
      "name" : "Health & Beauty other",
      "drawableId" : 7
    },
    {
      "name" : "Withdrawals & Bank changes",
      "drawableId" : 8
    },
    {
      "name" : "Outlays",
      "drawableId" : 8
    },
    {
      "name" : "Kids",
      "drawableId" : 8
    },
    {
      "name" : "Pets",
      "drawableId" : 8
    },
    {
      "name" : "Charity",
      "drawableId" : 8
    },
    {
      "name" : "Education",
      "drawableId" : 8
    },
    {
      "name" : "Other",
      "drawableId" : 8
    },
    {
      "name" : "Uncategorized",
      "drawableId" : 8
    }
  ]
}